@startuml

title __JAVA's Class Diagram__\n

  namespace  {
    class ActivityAppearances {
        + appearances()
        + appearancesperday()
    }
  }
  

  namespace  {
    class Counter {
        + countDistinctDays()
        + diff()
        + durationActivity()
    }
  }
  

  namespace  {
    class LocalTimeClass {
        - days : int
        - localTime : LocalTime
        + LocalTimeClass()
        + calculate()
        + getDays()
        + getLocalTime()
        + setDays()
        + setLocalTime()
    }
  }
  

  namespace  {
    class MonitoredData {
        - activity_label : String
        - dayoftheYear : int
        - end_time : String
        - start_time : String
        + MonitoredData()
        + getActivity_label()
        + getDayoftheYear()
        + getEnd_time()
        + getStart_time()
        {static} + main()
        + setDayoftheYear()
    }
  }
  

  namespace  {
    class ReadWriteData {
        + read()
        + write()
    }
  }
  



right footer


PlantUML diagram generated by SketchIt! (https://bitbucket.org/pmesmeur/sketch.it)
For more information about this tool, please contact philippe.mesmeur@gmail.com
endfooter

@enduml
